^E:\C++\CA1\CA1\DEBUG\CA1.OBJ|E:\C++\CA1\CA1\DEBUG\CA1_CLASS.OBJ|E:\C++\CA1\CA1\DEBUG\STDAFX.OBJ
/OUT:"E:\C++\CA1\DEBUG\CA1.EXE" /INCREMENTAL /NOLOGO KERNEL32.LIB USER32.LIB GDI32.LIB WINSPOOL.LIB COMDLG32.LIB ADVAPI32.LIB SHELL32.LIB OLE32.LIB OLEAUT32.LIB UUID.LIB ODBC32.LIB ODBCCP32.LIB /MANIFEST /MANIFESTUAC:"level='asInvoker' uiAccess='false'" /manifest:embed /DEBUG:FASTLINK /PDB:"E:\C++\CA1\DEBUG\CA1.PDB" /SUBSYSTEM:CONSOLE /TLBID:1 /DYNAMICBASE /NXCOMPAT /IMPLIB:"E:\C++\CA1\DEBUG\CA1.LIB" /MACHINE:X86 DEBUG\CA1.OBJDEBUG\CA1_CLASS.OBJDEBUG\STDAFX.OBJ
^E:\C++\CA1_V2\CA1\DEBUG\CA1.OBJ|E:\C++\CA1_V2\CA1\DEBUG\STDAFX.OBJ
/OUT:"E:\C++\CA1_V2\DEBUG\CA1.EXE" /INCREMENTAL /NOLOGO KERNEL32.LIB USER32.LIB GDI32.LIB WINSPOOL.LIB COMDLG32.LIB ADVAPI32.LIB SHELL32.LIB OLE32.LIB OLEAUT32.LIB UUID.LIB ODBC32.LIB ODBCCP32.LIB /MANIFEST /MANIFESTUAC:"level='asInvoker' uiAccess='false'" /manifest:embed /DEBUG:FASTLINK /PDB:"E:\C++\CA1_V2\DEBUG\CA1.PDB" /SUBSYSTEM:CONSOLE /TLBID:1 /DYNAMICBASE /NXCOMPAT /IMPLIB:"E:\C++\CA1_V2\DEBUG\CA1.LIB" /MACHINE:X86 DEBUG\CA1.OBJDEBUG\STDAFX.OBJ
^C:\USERS\USER\DESKTOP\CA1_V2\CA1\DEBUG\CA1.OBJ|C:\USERS\USER\DESKTOP\CA1_V2\CA1\DEBUG\STDAFX.OBJ
/OUT:"C:\USERS\USER\DESKTOP\CA1_V2\DEBUG\CA1.EXE" /INCREMENTAL /NOLOGO KERNEL32.LIB USER32.LIB GDI32.LIB WINSPOOL.LIB COMDLG32.LIB ADVAPI32.LIB SHELL32.LIB OLE32.LIB OLEAUT32.LIB UUID.LIB ODBC32.LIB ODBCCP32.LIB /MANIFEST /MANIFESTUAC:"level='asInvoker' uiAccess='false'" /manifest:embed /DEBUG:FASTLINK /PDB:"C:\USERS\USER\DESKTOP\CA1_V2\DEBUG\CA1.PDB" /SUBSYSTEM:CONSOLE /TLBID:1 /DYNAMICBASE /NXCOMPAT /IMPLIB:"C:\USERS\USER\DESKTOP\CA1_V2\DEBUG\CA1.LIB" /MACHINE:X86 DEBUG\CA1.OBJDEBUG\STDAFX.OBJ
^E:\WORK TO BE DONE\CA1_V2\CA1\DEBUG\CA1.OBJ|E:\WORK TO BE DONE\CA1_V2\CA1\DEBUG\STDAFX.OBJ
/OUT:"E:\WORK TO BE DONE\CA1_V2\DEBUG\CA1.EXE" /INCREMENTAL /NOLOGO KERNEL32.LIB USER32.LIB GDI32.LIB WINSPOOL.LIB COMDLG32.LIB ADVAPI32.LIB SHELL32.LIB OLE32.LIB OLEAUT32.LIB UUID.LIB ODBC32.LIB ODBCCP32.LIB /MANIFEST /MANIFESTUAC:"level='asInvoker' uiAccess='false'" /manifest:embed /DEBUG:FASTLINK /PDB:"E:\WORK TO BE DONE\CA1_V2\DEBUG\CA1.PDB" /SUBSYSTEM:CONSOLE /TLBID:1 /DYNAMICBASE /NXCOMPAT /IMPLIB:"E:\WORK TO BE DONE\CA1_V2\DEBUG\CA1.LIB" /MACHINE:X86 DEBUG\CA1.OBJDEBUG\STDAFX.OBJ
^G:\WORK TO BE DONE\CA1_V2\CA1\DEBUG\CA1.OBJ|G:\WORK TO BE DONE\CA1_V2\CA1\DEBUG\STDAFX.OBJ
/OUT:"G:\WORK TO BE DONE\CA1_V2\DEBUG\CA1.EXE" /INCREMENTAL /NOLOGO KERNEL32.LIB USER32.LIB GDI32.LIB WINSPOOL.LIB COMDLG32.LIB ADVAPI32.LIB SHELL32.LIB OLE32.LIB OLEAUT32.LIB UUID.LIB ODBC32.LIB ODBCCP32.LIB /MANIFEST /MANIFESTUAC:"level='asInvoker' uiAccess='false'" /manifest:embed /DEBUG:FASTLINK /PDB:"G:\WORK TO BE DONE\CA1_V2\DEBUG\CA1.PDB" /SUBSYSTEM:CONSOLE /TLBID:1 /DYNAMICBASE /NXCOMPAT /IMPLIB:"G:\WORK TO BE DONE\CA1_V2\DEBUG\CA1.LIB" /MACHINE:X86 DEBUG\CA1.OBJDEBUG\STDAFX.OBJ
^E:\CA1\CA1\DEBUG\CA1.OBJ|E:\CA1\CA1\DEBUG\STDAFX.OBJ
/OUT:"E:\CA1\DEBUG\CA1.EXE" /INCREMENTAL /NOLOGO KERNEL32.LIB USER32.LIB GDI32.LIB WINSPOOL.LIB COMDLG32.LIB ADVAPI32.LIB SHELL32.LIB OLE32.LIB OLEAUT32.LIB UUID.LIB ODBC32.LIB ODBCCP32.LIB /MANIFEST /MANIFESTUAC:"level='asInvoker' uiAccess='false'" /manifest:embed /DEBUG:FASTLINK /PDB:"E:\CA1\DEBUG\CA1.PDB" /SUBSYSTEM:CONSOLE /TLBID:1 /DYNAMICBASE /NXCOMPAT /IMPLIB:"E:\CA1\DEBUG\CA1.LIB" /MACHINE:X86 DEBUG\CA1.OBJDEBUG\STDAFX.OBJ
